<?xml version="1.0" encoding="utf-8"?>
<!-- Generator: Adobe Illustrator 21.1.0, SVG Export Plug-In . SVG Version: 6.00 Build 0)  -->
<svg version="1.1" id="Слой_1" xmlns="http://www.w3.org/2000/svg" xmlns:xlink="http://www.w3.org/1999/xlink" x="0px" y="0px"
	 viewBox="0 0 48.5 47.1" style="enable-background:new 0 0 48.5 47.1;" xml:space="preserve">
<style type="text/css">
	.st0{fill:#5DC1FF;}
	.st1{fill:#FFFFFF;}
</style>
<g id="xd" transform="translate(4392.531 5578.784)">
	<path id="Path_9420" class="st0" d="M-4392.5-5578.8h48.5v47.1h-48.5V-5578.8z"/>
	<path id="Path_9422" class="st1" d="M-4380.2-5543.1h-5.1l6.7-12.6l-6.4-12.2h5.2l3.7,8.1l3.8-8.1h5l-6.4,12l6.8,12.8h-5.3l-4-8.4
		L-4380.2-5543.1z M-4356.4-5561.1c0.7,0.5,1.4,1.2,1.8,2v-8.7h4.1v20.8c-2.8,5.8-7.5,4.5-8.6,4.5c-1.9,0-3.6-1-4.5-2.6
		c-1.3-2-1.9-4.3-1.8-6.7c-0.1-2.6,0.5-5.2,1.8-7.4c1-1.7,2.9-2.7,4.9-2.7C-4358-5561.8-4357.2-5561.6-4356.4-5561.1z M-4355.4-5548
		c0.6-1.2,0.9-2.6,0.9-3.9c0-2.2-0.5-3.8-1.4-4.8c-0.5-0.6-1.3-0.9-2-0.9c-1.1,0-2.1,0.6-2.6,1.6c-0.6,1.2-0.9,2.6-0.8,3.9
		c-0.1,1.4,0.2,2.8,0.8,4.1c0.5,1,1.5,1.6,2.5,1.5C-4357-5546.5-4355.9-5547.1-4355.4-5548z"/>
</g>
</svg>
