<?xml version="1.0" encoding="utf-8"?>
<!-- Generator: Adobe Illustrator 21.1.0, SVG Export Plug-In . SVG Version: 6.00 Build 0)  -->
<svg version="1.1" id="Слой_1" xmlns="http://www.w3.org/2000/svg" xmlns:xlink="http://www.w3.org/1999/xlink" x="0px" y="0px"
	 viewBox="0 0 47.6 46.3" style="enable-background:new 0 0 47.6 46.3;" xml:space="preserve">
<style type="text/css">
	.st0{fill:#5DC1FF;}
	.st1{fill:#FFFFFF;}
</style>
<g id="ai" transform="translate(4397.835 5860.233)">
	<path id="Path_9450" class="st0" d="M-4397.8-5860.2h47.6v46.3h-47.6V-5860.2z"/>
	<path id="Path_9451" class="st1" d="M-4366-5842.2c0-0.2,0.1-0.3,0.3-0.3h3.4c0.2,0,0.3,0.1,0.3,0.3v17.1c0,0.2,0,0.3-0.3,0.3h-3.4
		c-0.2,0-0.3-0.1-0.3-0.3L-4366-5842.2L-4366-5842.2z M-4366.2-5847.1c0-1.2,1-2.2,2.2-2.2c1.2,0,2.2,1,2.2,2.2
		c0.1,1.1-0.8,2.1-1.9,2.2c-0.1,0-0.2,0-0.3,0c-1.1,0.1-2.1-0.8-2.2-1.9C-4366.2-5846.9-4366.2-5847-4366.2-5847.1z M-4375.9-5835.1
		c-0.6-2.4-2-7.6-2.6-10.2h0c-0.5,2.5-1.6,6.8-2.5,10.2H-4375.9z M-4382-5831.6l-1.7,6.5c0,0.2-0.1,0.2-0.3,0.2h-3.2
		c-0.2,0-0.3-0.1-0.2-0.3l6.1-21.5c0.1-0.6,0.2-1.2,0.2-1.8c0-0.2,0.1-0.2,0.2-0.2h4.5c0.2,0,0.2,0,0.3,0.2l6.9,23.4
		c0,0.2,0,0.3-0.2,0.3h-3.6c-0.2,0-0.3,0-0.3-0.2l-1.8-6.5H-4382L-4382-5831.6z"/>
</g>
</svg>
