<svg xmlns="http://www.w3.org/2000/svg" viewBox="389.635 19.152 67.241 20.838">
  <defs>
    <style>
      .cls-1 {
        fill: #26acff;
      }
    </style>
  </defs>
  <g id="logo" transform="translate(389.635 19.152)">
    <path id="Path_1" data-name="Path 1" class="cls-1" d="M981.9,141.9l5.5,3.411-5.5,3.668Z" transform="translate(-933.289 -134.875)"/>
    <path id="Path_2" data-name="Path 2" class="cls-1" d="M389.6,0l.911,4.436h-4.862V8.718h5.5v4.406h-5.5v2.614h4.832v4.525h-9.753V13.124H379.4V8.718h1.337V0Z" transform="translate(-360.617 0)"/>
    <path id="Path_3" data-name="Path 3" class="cls-1" d="M11.179,1.064A11.721,11.721,0,0,0,5.589,0H0V20.263H4.8v-4.5h0V4.406h.455c2.277,0,3.708.485,4.832,1.639a5.826,5.826,0,0,1,1.52,3.98A5.7,5.7,0,0,1,8.817,15.07a5.138,5.138,0,0,1-2.624.688v4.485a13.109,13.109,0,0,0,3.9-.649,9.958,9.958,0,0,0,6.471-9.57A9.856,9.856,0,0,0,11.179,1.064Z" transform="translate(0 0)"/>
    <path id="Path_4" data-name="Path 4" class="cls-1" d="M835.243,14.07,840.867,0h-4.985L833,7.946Z" transform="translate(-791.761 0)"/>
    <path id="Path_6" data-name="Path 6" class="cls-1" d="M1078.523,9.264l1.956,2.619,3.951-3.386,3.862-3.371V1.1H1075.8V5.125h7.386Z" transform="translate(-1022.54 -1.046)"/>
    <path id="Path_7" data-name="Path 7" class="cls-1" d="M1075.109,160.4l-3.272,2.807a2.426,2.426,0,0,1,.381-.03,2.555,2.555,0,0,1,2.649,2.758,2.967,2.967,0,0,1-3.06,2.906c-2.05,0-3.317-1.267-4.362-2.906l-2.946,3.02a8.9,8.9,0,0,0,7.307,3.768c4.025,0,7.233-2.609,7.233-6.787A5.989,5.989,0,0,0,1075.109,160.4Z" transform="translate(-1011.8 -152.459)"/>
    <path id="Path_5" data-name="Path 5" class="cls-1" d="M650.591,7.8,647.715,0H642.7l8.08,20.838h.881L653.6,16Z" transform="translate(-610.882 0)"/>
  </g>
</svg>
