<?xml version="1.0" encoding="utf-8"?>
<!-- Generator: Adobe Illustrator 21.1.0, SVG Export Plug-In . SVG Version: 6.00 Build 0)  -->
<svg version="1.1" id="Слой_1" xmlns="http://www.w3.org/2000/svg" xmlns:xlink="http://www.w3.org/1999/xlink" x="0px" y="0px"
	 viewBox="0 0 77.7 86.9" style="enable-background:new 0 0 77.7 86.9;" xml:space="preserve">
<style type="text/css">
	.st0{fill:#F5FAFC;}
	.st1{fill:#DDE8F8;}
	.st2{fill:#26ACFF;}
</style>
<g id="stage-07" transform="translate(5203 4829.821)">
	<rect id="Rectangle_2221" x="-5190.8" y="-4828.5" class="st0" width="53.2" height="53.2"/>
	<rect id="Rectangle_2222" x="-5190.8" y="-4800.7" class="st1" width="53.2" height="25.3"/>
	<path id="Path_9188" class="st0" d="M-5133.1-4794.5h-13c0,0.2,0,0.4,0,0.6l0,0c0,4.8-3.9,8.8-8.8,8.8h-18.2
		c-4.8,0-8.8-3.9-8.8-8.8l0,0c0-0.2,0-0.4,0-0.6h-13c-3.3,0-5.9,2.6-5.9,5.9v37.8c0,3.3,2.6,5.9,5.9,5.9h61.7c3.3,0,5.9-2.6,5.9-5.9
		c0,0,0,0,0,0v-37.8C-5127.2-4791.8-5129.8-4794.5-5133.1-4794.5C-5133.1-4794.5-5133.1-4794.5-5133.1-4794.5z"/>
	<path id="Path_9189" class="st2" d="M-5133.3-4742.9h-61.7c-4.4,0-8-3.6-8-8v-37.8c0-4.4,3.6-8,8-8h13c0.6,0,1.1,0.2,1.5,0.6
		c0.4,0.4,0.6,1,0.6,1.5c0,0.2,0,0.3,0,0.4c0,3.7,3,6.7,6.7,6.7h18.2c3.7,0,6.7-3,6.7-6.7c0-0.1,0-0.3,0-0.4c0-0.6,0.2-1.1,0.6-1.5
		c0.4-0.4,0.9-0.6,1.5-0.6h13c4.4,0,8,3.6,8,8v37.8C-5125.3-4746.5-5128.9-4743-5133.3-4742.9z M-5195-4792.6
		c-2.1,0-3.9,1.7-3.9,3.9v37.8c0,2.1,1.7,3.9,3.9,3.9h61.7c2.1,0,3.9-1.7,3.9-3.9v-37.8c0-2.1-1.7-3.9-3.9-3.9h-11
		c-0.7,5.4-5.3,9.3-10.7,9.3h-18.2c-5.4,0-10-4-10.7-9.3H-5195z"/>
	<path id="Path_9190" class="st2" d="M-5137.8-4793.3c-0.7,0-1.3-0.6-1.3-1.3c0,0,0,0,0,0v-32.6h-50.2v32.6c0,0.7-0.5,1.3-1.2,1.3
		c-0.7,0-1.3-0.5-1.3-1.2c0,0,0,0,0-0.1v-33.9c0-0.7,0.6-1.3,1.3-1.3c0,0,0,0,0,0h52.8c0.7,0,1.3,0.6,1.3,1.3c0,0,0,0,0,0v33.9
		C-5136.5-4793.9-5137.1-4793.3-5137.8-4793.3z"/>
	<path id="Path_9191" class="st2" d="M-5143.5-4800h-46c-0.7,0-1.3-0.5-1.3-1.2c0-0.7,0.5-1.3,1.2-1.3c0,0,0,0,0.1,0h46.1
		c0.7,0,1.3,0.6,1.3,1.3c0,0,0,0,0,0C-5142.2-4800.5-5142.8-4800-5143.5-4800C-5143.5-4800-5143.5-4800-5143.5-4800z"/>
	<path id="Path_9192" class="st2" d="M-5196-4798.9c-0.7,0-1.3-0.6-1.3-1.3c0,0,0,0,0,0v-8.3c0-0.7,0.5-1.3,1.2-1.3
		c0.7,0,1.3,0.5,1.3,1.2c0,0,0,0,0,0.1v8.3C-5194.7-4799.5-5195.3-4798.9-5196-4798.9C-5196-4798.9-5196-4798.9-5196-4798.9z"/>
	<path id="Path_9193" class="st2" d="M-5132.5-4799.4c-0.7,0-1.3-0.6-1.3-1.3c0,0,0,0,0,0v-8.3c0-0.7,0.5-1.3,1.2-1.3
		c0.7,0,1.3,0.5,1.3,1.2c0,0,0,0,0,0.1v8.3C-5131.3-4800-5131.8-4799.4-5132.5-4799.4C-5132.5-4799.4-5132.5-4799.4-5132.5-4799.4z"
		/>
	<path id="Path_9194" class="st2" d="M-5145.1-4772.3h-21.9c-0.7,0-1.3-0.5-1.3-1.2c0-0.7,0.5-1.3,1.2-1.3c0,0,0,0,0.1,0h21.9
		c0.7,0,1.3,0.5,1.3,1.2S-5144.3-4772.3-5145.1-4772.3C-5145.1-4772.3-5145.1-4772.3-5145.1-4772.3L-5145.1-4772.3z"/>
	<path id="Path_9195" class="st2" d="M-5173.6-4772.3h-9.3c-0.7,0-1.3-0.5-1.3-1.2c0-0.7,0.5-1.3,1.2-1.3c0,0,0,0,0.1,0h9.3
		c0.7,0,1.3,0.5,1.3,1.2C-5172.3-4772.9-5172.8-4772.3-5173.6-4772.3C-5173.6-4772.3-5173.6-4772.3-5173.6-4772.3z"/>
	<path id="Path_9196" class="st2" d="M-5138.5-4764.1h-10c-0.7,0-1.3-0.5-1.3-1.2c0-0.7,0.5-1.3,1.2-1.3c0,0,0,0,0.1,0h10
		c0.7,0,1.3,0.6,1.2,1.3C-5137.3-4764.7-5137.9-4764.1-5138.5-4764.1z"/>
	<path id="Path_9197" class="st2" d="M-5155.6-4764.1h-33.9c-0.7,0-1.3-0.6-1.2-1.3c0-0.7,0.6-1.2,1.2-1.2h33.9
		c0.7,0,1.3,0.6,1.3,1.3C-5154.4-4764.7-5154.9-4764.2-5155.6-4764.1z"/>
	<path id="Path_9198" class="st2" d="M-5145.1-4755.9h-37.8c-0.7,0-1.3-0.6-1.2-1.3c0-0.7,0.6-1.2,1.2-1.2h37.8
		c0.7,0,1.3,0.6,1.2,1.3C-5143.9-4756.5-5144.4-4756-5145.1-4755.9z"/>
	<path id="Path_9199" class="st2" d="M-5164.3-4806.4c-0.7,0-1.3-0.6-1.3-1.3c0,0,0,0,0,0v-13.6c0-0.7,0.5-1.3,1.2-1.3
		c0.7,0,1.3,0.5,1.3,1.2c0,0,0,0,0,0.1v13.7C-5163-4807-5163.6-4806.4-5164.3-4806.4z"/>
	<path id="Path_9200" class="st2" d="M-5157.7-4820.1h-13.2c-0.7,0-1.3-0.5-1.3-1.2c0-0.7,0.5-1.3,1.2-1.3c0,0,0,0,0.1,0h13.2
		c0.7,0,1.3,0.6,1.2,1.3C-5156.4-4820.6-5157-4820.1-5157.7-4820.1z"/>
	<path id="Path_9201" class="st2" d="M-5161.2-4806.4h-6.1c-0.7,0-1.3-0.6-1.2-1.3c0-0.7,0.6-1.2,1.2-1.2h6.1c0.7,0,1.3,0.6,1.3,1.3
		c0,0,0,0,0,0C-5159.9-4807-5160.5-4806.4-5161.2-4806.4z"/>
	<path id="Path_9202" class="st2" d="M-5157.7-4817.6c-0.7,0-1.3-0.6-1.3-1.3c0,0,0,0,0,0v-2.5c0-0.7,0.6-1.3,1.3-1.2
		c0.7,0,1.2,0.6,1.2,1.2v2.5C-5156.4-4818.2-5156.9-4817.6-5157.7-4817.6C-5157.7-4817.6-5157.7-4817.6-5157.7-4817.6z"/>
	<path id="Path_9203" class="st2" d="M-5170.9-4817.6c-0.7,0-1.3-0.6-1.3-1.3c0,0,0,0,0,0v-2.5c0-0.7,0.5-1.3,1.2-1.3
		c0.7,0,1.3,0.5,1.3,1.2c0,0,0,0,0,0.1v2.5C-5169.6-4818.2-5170.2-4817.6-5170.9-4817.6C-5170.9-4817.6-5170.9-4817.6-5170.9-4817.6
		z"/>
</g>
</svg>
