<?xml version="1.0" encoding="utf-8"?>
<!-- Generator: Adobe Illustrator 21.1.0, SVG Export Plug-In . SVG Version: 6.00 Build 0)  -->
<svg version="1.1" xmlns="http://www.w3.org/2000/svg" xmlns:xlink="http://www.w3.org/1999/xlink" x="0px" y="0px"
	 viewBox="0 0 2429.2 1546.3" style="enable-background:new 0 0 2429.2 1546.3;" xml:space="preserve">
<style type="text/css">
	.st0{fill:#F5F9FC;}
	.st1{clip-path:url(#SVGID_2_);}
	.st2{fill:#E1ECF1;}
	.st3{fill:#C4DDE7;}
	.st4{fill:#0090EA;}
	.st5{fill:none;}
	.st6{fill:#CBE7F9;}
	.st7{fill:#FFFFFF;}
	.st8{fill:#26ACFF;}
	.st9{fill:#007ECC;}
	.st10{fill:#7BCAFC;}
	.st11{fill:#26ACFF;}
	.st12{fill:#CFDBD8;}
	.st13{fill:#EDEEEF;}
	.st14{fill:#9FD2F3;}
	.st15{fill:#B2DCF6;}
	.st16{fill:#6AB3E2;}
	.st17{fill:#DCEFFA;}

		.bag{
			transform:scale(0) translate(300%, 0%);
			-webkit-animation: down 0.6s linear  forwards 0.8s;
			-o-animation: down 0.6s linear  forwards 0.8s; 
			-moz-animation: down 0.6s linear  forwards 0.8s;
			animation: down 0.6s linear  forwards 0.8s;
		}

		.laptop{
			transform:scale(0) translate(300%, 0%);
			-webkit-animation: down 0.6s linear  forwards;
			-o-animation: down 0.6s linear  forwards ; 
			-moz-animation: down 0.6s linear  forwards ;
			animation: down 0.6s linear  forwards ;
		}

		.laptop-inner{
			opacity:0;
			-webkit-animation: fade 1s linear forwards 1.5s;
			-o-animation: fade 1s linear forwards 1.5s; 
			-moz-animation: fade 1s linear  forwards 1.5s;
			animation: fade 1s linear forwards 1.5s;
		}


		.first-book{
			opacity:0;
			transform: translate(0%, -300%);
			-webkit-animation: down 1s linear  forwards 0s;
			-o-animation: down 1s linear  forwards 0s; 
			-moz-animation: down 1s linear  forwards 0s;
			animation: down 1s linear  forwards 0s;
		}

		.second-book{
			opacity:0;
			transform: translate(0%, -300%);
			-webkit-animation: down 0.5s linear  forwards 0.5s;
			-o-animation: down 0.5s linear  forwards 0.5s; 
			-moz-animation: down 0.5s linear  forwards 0.5s;
			animation: down 0.5s linear  forwards 0.5s;
		}


		.third-book{
			opacity:0;
			transform: translate(0%, -300%);
			-webkit-animation: down 0.7s linear  forwards 1.2s;
			-o-animation: down 0.7s linear  forwards 1.2s; 
			-moz-animation: down 0.7s linear  forwards 1.2s;
			animation: down 0.7s linear  forwards 1.2s;
		}

		.animate{
			-webkit-animation: move 10s linear infinite forwards 2.5s;
			-o-animation: move 10s linear infinite forwards 2.5s;
			-moz-animation: move 10s linear infinite forwards 2.5s;
			animation: move 10s linear infinite forwards 2.5s;
		}

		.first-animate{
			opacity:0;
			transform:translate(0, 50%);
			-webkit-animation: up 0.5s linear  forwards 1.5s;
			-o-animation: up 0.5s linear  forwards 1.5s; 
			-moz-animation: up 0.5s linear  forwards 1.5s;
			animation: up 0.5s linear  forwards 1.5s;
		}

		.second-animate{
			opacity:0;
			transform:translate(0, 50%);
			-webkit-animation: up 0.5s linear  forwards 2s;
			-o-animation: up 0.5s linear  forwards 2s; 
			-moz-animation: up 0.5s linear  forwards 2s;
			animation: up 0.5s linear  forwards 2s;
		}



		@keyframes fade{
			0%{
				opacity:0;
			}

			100%{
				opacity:1;
			}
		}

		@-webkit-keyframes  fade{
			0%{
				opacity:0;
			}

			100%{
				opacity:1;
			}
		}

		@-moz-keyframes  fade{
			0%{
				opacity:0;
			}

			100%{
				opacity:1;
			}
		}

		@-o-keyframes  fade{
			0%{
				opacity:0;
			}

			100%{
				opacity:1;
			}
		}

		@-ms-keyframes  fade{
			0%{
				opacity:0;
			}

			100%{
				opacity:1;
			}
		} 


		@keyframes down{
			0%{
				opacity:0;
				transform:translate(0%, -300%);
			}

			70%{
				opacity:1;
				transform:translate(0%, 0%);
			}

			85%{
				opacity:1;
				transform:translate(0%, -20%);
			}

			100%{
				opacity:1;
				transform:translate(0%, 0%);
			}
		}

		@-webkit-keyframes down{
			0%{
				opacity:0;
				transform:translate(0%, -300%);
			}

			70%{
				opacity:1;
				transform:translate(0%, 0%);
			}

			85%{
				opacity:1;
				transform:translate(0%, -20%);
			}

			100%{
				opacity:1;
				transform:translate(0%, 0%);
			}
		}

		@-moz-keyframes down{
			0%{
				opacity:0;
				transform:translate(0%, -300%);
			}

			70%{
				opacity:1;
				transform:translate(0%, 0%);
			}

			85%{
				opacity:1;
				transform:translate(0%, -20%);
			}

			100%{
				opacity:1;
				transform:translate(0%, 0%);
			}
		}

		@-o-keyframes down{
			0%{
				opacity:0;
				transform:translate(0%, -300%);
			}

			70%{
				opacity:1;
				transform:translate(0%, 0%);
			}

			85%{
				opacity:1;
				transform:translate(0%, -20%);
			}

			100%{
				opacity:1;
				transform:translate(0%, 0%);
			}
		}

		@-ms-keyframes down{
			0%{
				opacity:0;
				transform:translate(0%, -300%);
			}

			70%{
				opacity:1;
				transform:translate(0%, 0%);
			}

			85%{
				opacity:1;
				transform:translate(0%, -20%);
			}

			100%{
				opacity:1;
				transform:translate(0%, 0%);
			}
		}


		@keyframes up{
			0%{
				opacity:0;
				transform:translate(0%, 50%);
			}

			100%{
				opacity:1;
				transform:translate(0%, 0%);
			}
		}

		@-webkit-keyframes up{
			0%{
				opacity:0;
				transform:translate(0%, 50%);
			}

			100%{
				opacity:1;
				transform:translate(0%, 0%);
			}
		}

		@-moz-keyframes up{
			0%{
				opacity:0;
				transform:translate(0%, 50%);
			}

			100%{
				opacity:1;
				transform:translate(0%, 0%);
			}
		}

		@-o-keyframes up{
			0%{
				opacity:0;
				transform:translate(0%, 50%);
			}

			100%{
				opacity:1;
				transform:translate(0%, 0%);
			}
		}

		@-ms-keyframes up{
			0%{
				opacity:0;
				transform:translate(0%, 50%);
			}

			100%{
				opacity:1;
				transform:translate(0%, 0%);
			}
		}


		@-webkit-keyframes move{
			0%{
				transform:matrix(0.24 0 0 0.24 710.4 862.3801);
			}

			10%{
				transform:matrix(0.24 0 0 0.24 710.4 862.3801);
			}
			50%{
				transform: matrix(0.24, 0, 0, 0.24, 710.4, 162.38);
			}

			60%{
				transform: matrix(0.24, 0, 0, 0.24, 710.4, 162.38);
			}

			100%{
				transform:matrix(0.24 0 0 0.24 710.4 862.3801);
			}
		}

		@-moz-keyframes move{
			0%{
				transform:matrix(0.24 0 0 0.24 710.4 862.3801);
			}

			10%{
				transform:matrix(0.24 0 0 0.24 710.4 862.3801);
			}
			50%{
				transform: matrix(0.24, 0, 0, 0.24, 710.4, 182.38);
			}

			60%{
				transform: matrix(0.24, 0, 0, 0.24, 710.4, 182.38);
			}

			100%{
				transform:matrix(0.24 0 0 0.24 710.4 862.3801);
			}
		}

		@-o-keyframes move{
			0%{
				transform:matrix(0.24 0 0 0.24 710.4 862.3801);
			}

			10%{
				transform:matrix(0.24 0 0 0.24 710.4 862.3801);
			}
			50%{
				transform: matrix(0.24, 0, 0, 0.24, 710.4, 182.38);
			}

			60%{
				transform: matrix(0.24, 0, 0, 0.24, 710.4, 182.38);
			}

			100%{
				transform:matrix(0.24 0 0 0.24 710.4 862.3801);
			}
		}

		@-ms-keyframes move{
			0%{
				transform:matrix(0.24 0 0 0.24 710.4 862.3801);
			}

			10%{
				transform:matrix(0.24 0 0 0.24 710.4 862.3801);
			}
			50%{
				transform: matrix(0.24, 0, 0, 0.24, 710.4, 182.38);
			}

			60%{
				transform: matrix(0.24, 0, 0, 0.24, 710.4, 182.38);
			}

			100%{
				transform:matrix(0.24 0 0 0.24 710.4 862.3801);
			}
		}

		@keyframes move{
			0%{
				transform:matrix(0.24 0 0 0.24 710.4 862.3801);
			}

			10%{
				transform:matrix(0.24 0 0 0.24 710.4 862.3801);
			}
			50%{
				transform: matrix(0.24, 0, 0, 0.24, 710.4, 182.38);
			}

			60%{
				transform: matrix(0.24, 0, 0, 0.24, 710.4, 182.38);
			}

			100%{
				transform:matrix(0.24 0 0 0.24 710.4 862.3801);
			}
		}
</style>
<g id="Слой_2_1_">
	<ellipse class="st0" cx="1214.6" cy="1392.5" rx="1214.6" ry="62.9"/>
	<ellipse class="st0" cx="453.7" cy="1360.2" rx="319.2" ry="33.6"/>
	<ellipse class="st0" cx="2049.9" cy="1365.6" rx="319.2" ry="33.6"/>
</g>
<g id="Слой_10" class="second-animate">>
	<g>
		<defs>
			<ellipse id="SVGID_1_" cx="714.2" cy="458.5" rx="498.7" ry="408.5"/>
		</defs>
		<clipPath id="SVGID_2_">
			<use xlink:href="#SVGID_1_"  style="overflow:visible;"/>
		</clipPath>
		<g class="st1">
			<path class="st2" d="M855.6,386c-5,48.7-3.4,114.1,5,156.1c5.2,25.9,68,74,50.4,94c-27.6,31.3-148.5,28.5-175.4,28.5
				c-27.5,0-125.4,0.7-148.6-31.9c-13.9-19.5,38.6-65.3,38.6-90.6c0-33.8,11.7-92.3,1.7-142.7c-6.1-30.6,86.2,20.1,108.3,20.1
				C755.1,419.6,858.7,356.5,855.6,386z"/>
			<path class="st2" d="M613.4,353.4c0,11.6-9.4,21-21,21l0,0c-11.6,0-17-4-17-48.3l-7.1-28.5c0-19.8,16.1,4.8,27.7,4.8h6.3
				c11.6,0,11.1,0.7,11.1,12.3V353.4z"/>
			<path class="st2" d="M847.9,353.4c0,11.6,9.4,21,21,21l0,0c11.6,0,17-4,17-48.3l7.1-28.5c0-19.8-16.1,4.8-27.7,4.8H859
				c-11.6,0-11.1,0.7-11.1,12.3V353.4z"/>
			<g>
				<path class="st3" d="M860.7,542.1c-8.4-41.9-10.1-107.4-5-156.1c3.1-29.6-100.5,33.6-120,33.6c-22,0-114.4-50.8-108.3-20.1
					c4.2,21,4.6,43.5,3.7,65l162.5,220.4C824,681,899.5,649.2,911,636.1C928.7,616.1,865.8,568,860.7,542.1z"/>
			</g>
			<g>
				<path class="st2" d="M628.5,194.6c-27.2,23.3-19,79.3-19,118.1V380c0,19.5-1.5,42.1,6.3,58.6c14.3,30.2,50,60.1,81.6,71.3
					c12.9,4.6,23-2.9,37.3-3.2l-1.2-320.9C702.1,185.5,650,176.2,628.5,194.6z"/>
				<path class="st2" d="M861.4,312.6c0-42.9,7.1-99.1-25.4-122c-20.5-14.5-73.7-4.8-100.6-4.8c-0.7,0-3,0-3.6,0l1.2,320.9
					c0.2,0,2.2,0,2.5,0c14.8,0,41.5,7.1,54.6,2.4c25.4-25.4,44.4-35.7,66.6-67.3c7.6-16.3,4.7-42.5,4.7-61.8V312.6z"/>
			</g>
			<g>
				<path class="st4" d="M581.7,185.8c-2.2,4.8-4.4,9.7-6,14.7c-6.6,21.1-2.8,41.3,5.4,61.2c7.7,18.8,16.7,37.4,17.7,58.2
					c0.5,10.9,7.1,16.8,15,24c-1.4-12.6-3-23.8-3.9-35.1c-1.1-14.4,1.5-28.1,12.5-38.5c7.1-6.7,9-14.4,7.7-23.5
					c-0.7-4.7-1.3-9.4-1.8-14.1c-2.5-21.1,5.1-33.8,26.1-38.1c14.6-3,29.9-3.4,44.9-3.3c34.4,0.1,68.7,1.3,103,2
					c3.1,0.1,6.2-0.1,9.2,0.2c14.8,1.3,24.1,10.2,25.6,25.1c0.5,5.2,0.9,10.9-0.6,15.8c-5.2,17-0.8,31,10.6,44.1
					c9,10.3,12.7,22.9,11.8,36.6c-0.6,9.7-1.8,19.3-2.7,28.9c0.8,0.3,1.5,0.7,2.3,1c2.9-6.6,6.8-12.9,8.5-19.7
					c3.8-15.5,6.2-31.2,9.7-46.7c6.1-27.4,10.5-54.9,5.5-83c-4.2-23.7-21.5-56.1-50.5-54.5c0.9,1.6-15.8,11.3-18.1,6.7
					c-6.6-13.3-26.5-17.6-42.3-21.1c-29.5-6.5-59.1-1.9-89.2-2.9C605.5,120.8,584.8,179.2,581.7,185.8z"/>
			</g>
			<path class="st5" d="M834.1,573.3l-19.7,92.9c1.2-19.1,7.4-53.3,11.6-82.4C829.3,580.4,832.1,576.9,834.1,573.3z"/>
			<path class="st5" d="M732.8,616.1c-3.3,0.9-6.1,2.3-8.7,4c-3.3-2-6.7-4.2-9.9-6.3L732.8,616.1z"/>
			<path class="st5" d="M772.3,614.2c-2.6,2.2-5.2,4.3-7.8,6.4c-1.7-1.2-3.4-2.2-5.4-3C763.1,616.8,767.6,615.7,772.3,614.2z"/>
			<path class="st6" d="M661.1,866.9H743c2.3-120.4,5-242,7.9-243.9c-3.3-2.1-125.1-80.2-128.3-82.3c0,0-2.2,75.1-6,61.8l28.6,121.9
				L661.1,866.9z"/>
			<path class="st6" d="M736,866.9h76.2L837,724.4l28.6-121.9c-3.8,13.3-8.5-62.9-8.5-62.9c-3.2,2.1-117,75.5-120.3,77.5
				C739.4,618.9,737.9,739.4,736,866.9z"/>
			<g>
				<polygon class="st7" points="555.4,658 584.5,696.7 593.7,692.3 				"/>
			</g>
			<g>
				<path class="st4" d="M1188.6,866.9l-93.1-232.2l-228.3-97.6c0,0-5.8,129-26,277.1c-2.4,17.4-5,35.1-8,52.7H1188.6z"/>
			</g>
			<path class="st4" d="M624.8,751.5c-19.4-144.6,10.6-221.8,10.6-221.8L387.4,637l-1.2,4.8c-32.1,87-58.4,161.4-79.8,225.1h337.4
				C636.3,827,629.7,787.9,624.8,751.5z"/>
			<g>
				<polygon class="st8" points="740.5,609.2 783.7,686.7 735,771.7 696,685.6 733.9,609.2 				"/>
				<polygon class="st7" points="856.3,529.3 796.4,709.2 739.9,608.6 				"/>
				<polygon class="st7" points="622.4,529.3 682.3,709.2 738.8,608.6 				"/>
				<polygon class="st8" points="773,866.9 738.1,652.4 705.1,866.9 				"/>
			</g>
			<g>
				<polygon class="st9" points="548.3,763 584.4,866.9 673.3,866.9 623.4,528.2 577.3,557.3 534,680.2 604.9,734.6 				"/>
			</g>
			<g>
				<polygon class="st9" points="899.9,866.9 937.6,763 881.1,734.6 952,680.2 907.9,557.3 862.6,528.2 810.5,866.9 				"/>
			</g>
		</g>
	</g>
</g>
<g id="Слой_11" class="second-animate">>
	<g>
		<g>
			

			<g>
				<path class="st2" d="M1675,404.9c-4.1-31.9-5.8-81.1-2.1-117.6c2.3-22.2-75.5,25.2-90.2,25.2c-16.5,0-86-38.1-81.4-15.1
					c7.5,37.3,0.8,72.7-0.6,98.1c15,3.6,22.9,54.7,17.3,60.8c4.2,10.7,8.5,20.1,11.9,24.8c17.4,24.5,32.1,15.5,52.8,15.5
					c20.2,0,41.8-5.8,62.6-29.3C1658.6,452.2,1676.8,418.2,1675,404.9z"/>
				<path class="st2" d="M1490.9,262.7c0,8.7-7.1,15.8-15.8,15.8l0,0c-8.7,0-12.8-3-12.8-36.3l-5.4-21.4c0-14.9,12.1,3.6,20.8,3.6
					h4.8c8.7,0,8.3,0.5,8.3,9.2L1490.9,262.7L1490.9,262.7z"/>
				<path class="st2" d="M1667.1,262.7c0,8.7,7.1,15.8,15.8,15.8l0,0c8.7,0,12.8-3,12.8-36.3l5.4-21.4c0-14.9-12.1,3.6-20.8,3.6
					h-4.8c-8.7,0-8.4,0.5-8.4,9.2V262.7z"/>
				<g>
					<path class="st3" d="M1674.6,395.4c-4.3-35.7-5.4-71.6-1.7-108.2c2.3-22.2-75.5,25.2-90.2,25.2c-16.5,0-86-38.1-81.4-15.1
						c3.2,15.8,3.5,32.7,2.7,48.8l122.2,165.6c22.9-2.9-6.6,0.6,2.1-9.2C1641.7,487.5,1677,415.1,1674.6,395.4z"/>
				</g>
				<g>
					<path class="st2" d="M1502.2,143.3c-20.4,17.5-14.3,59.6-14.3,88.7v50.6c0,14.7-1.1,31.7,4.7,44.1
						c10.8,22.7,37.5,45.1,61.4,53.6c9.7,3.4,17.2-2.2,28-2.4l-0.9-241.1C1557.6,136.5,1518.4,129.5,1502.2,143.3z"/>
					<path class="st2" d="M1677.3,232c0-32.2,5.3-74.5-19.1-91.7c-15.4-10.9-89.7-3.6-110-3.6c-0.5,0,2.3,15.6,15.8,20.2l16.7,221
						c0.2,0,1.6,0,1.8,0c11.1,0,31.2,5.3,41.1,1.8c19-19,33.3-26.8,50-50.6c5.8-12.3,3.6-32,3.6-46.5L1677.3,232L1677.3,232z"/>
				</g>
			</g>



			<path class="st10" d="M1957.2,773.5c9.6-13.4-5.3-4.8-12.7-22c-7.5-17.3-14.9-47.9-27.6-106.3c-12.7-58.4-39.3-164.7-43.5-173.4
				c-4.1-8.5-191.5-75.5-197.7-77.7c0-0.6,0-0.9,0-0.9c-1.9,1.2-64.8,46.7-87.2,62.7c-13.5-9.2-85.5-59.4-87.6-60.8c0,0,0,0.9,0,2.4
				c-0.2-1.2-0.2-2-0.1-2.5c0,0-207.1,74.1-211.3,82.7c-4.2,8.6-30.8,114.9-43.6,173.4c-12.7,58.4-20.2,89.1-27.6,106.3
				c-7.4,17.2-22.3,8.6-12.8,22c9.7,13.3,2.3,19.1,0.2,23.9c-1,2.3,0.4,8,1.9,13.6h132.2c11.9-31,27-65.7,35.9-82.6
				c0,0,5.9,49.9,8.9,82.6c0,72,393.3,71.9,393.3-0.1v0.1c2.8-32.3,9.4-88.4,9.4-88.4c9.4,18,25.9,56,38,88.4
				c0,22.5,128.7,22.5,128.7,0c1.4-6.9,4.6-16.2,3.2-19.4C1955.1,792.7,1947.6,787,1957.2,773.5z"/>
							<g>
				<path class="st8" d="M1851.6,816.9l7.7-100.6c0,0-12.1,90.9-20.3,100.6H1851.6z"/>
				<path class="st8" d="M1773.4,714.2c-0.8,9.3,0.1,67.2,0.7,102.7h3.1c2.5-36.6,10.1-88.4,10.1-88.4s21.5,50,36.9,88.4h11.9
					c-8.3-8.1-22.3-69.8-26.7-81.8c-4.7-12.6,13.9,3.1,8.1-5.2c-5.8-8.4-22-34.5-22-34.5c19.2-23.9,41.4-91.6,49.8-118.9
					c-13.3,33.9-59.1,111.6-59.1,111.6l34.8-83.7l-10.4-60.7c0,0-31.3,133.9-31.3,137s-29,38.7-29,38.7S1774.6,700.6,1773.4,714.2z"
					/>
			</g>
			<g>
				<path class="st11" d="M1367.5,701.1c0,0-16.2,26.1-22,34.5s12.8-7.3,8.1,5.2c-3.8,10.4-14.9,58.3-23.2,76.1h10.7
					c15.2-37.4,34.6-82.6,34.6-82.6s6.8,46.6,9.7,82.6h3.7c0.6-35.7,1.3-88.1,0.5-97c-1.2-13.6,23.2,5.2,23.2,5.2s-29-35.6-29-38.7
					c0-3.1-31.3-137-31.3-137l-10.4,60.7l34.8,83.7c0,0-45.7-77.7-59.1-111.6C1326.2,609.6,1348.3,677.2,1367.5,701.1z"/>
				<path class="st11" d="M1321.3,816.9c-7.9-22.5-17.6-94.9-17.6-94.9l7.3,94.9H1321.3z"/>
			</g>
			<path class="st5" d="M1593.4,456.6c2.3,0.7,4.3,1.7,6.2,2.9c2.3-1.4,4.7-3,7-4.5L1593.4,456.6z"/>
			<path class="st5" d="M1565.4,455.2c1.8,1.5,3.7,3.1,5.5,4.5c1.2-0.8,2.4-1.5,3.8-2.1C1571.9,457.1,1568.8,456.3,1565.4,455.2z"/>
			<path class="st8" d="M1597.4,816.9V454.1c0,0-3.6,1.2-8,1.2c-3.5,0-8-1.2-8-1.2V817L1597.4,816.9L1597.4,816.9z"/>
			<g>
				<g>
					<path class="st7" d="M1587.2,502.4c4.6,1,9.1-1.8,10.2-6.4c1-4.6-1.8-9.1-6.4-10.2c-4.6-1-9.1,1.8-10.2,6.4
						C1579.8,496.8,1582.7,501.3,1587.2,502.4"/>
					<path class="st12" d="M1587.3,492.9c0.9,0.2,1.7-0.3,1.9-1.2c0.2-0.9-0.3-1.7-1.2-1.9c-0.9-0.2-1.7,0.3-1.9,1.2
						C1585.9,491.8,1586.5,492.7,1587.3,492.9"/>
					<path class="st12" d="M1586.3,497.3c0.9,0.2,1.7-0.3,1.9-1.2c0.2-0.9-0.3-1.7-1.2-1.9c-0.9-0.2-1.7,0.3-1.9,1.2
						C1584.9,496.2,1585.5,497.1,1586.3,497.3"/>
					<path class="st12" d="M1591.5,493.8c0.9,0.2,1.7-0.4,1.9-1.2c0.2-0.9-0.4-1.7-1.2-1.9c-0.9-0.2-1.7,0.3-1.9,1.2
						C1590.1,492.8,1590.6,493.6,1591.5,493.8"/>
					<path class="st12" d="M1590.5,498.3c0.9,0.2,1.7-0.3,1.9-1.2c0.2-0.9-0.3-1.7-1.2-1.9c-0.9-0.2-1.7,0.3-1.9,1.2
						C1589.1,497.2,1589.6,498.1,1590.5,498.3"/>
				</g>
				<g>
					<path class="st7" d="M1587.2,593.1c4.6,1,9.1-1.8,10.2-6.4c1-4.6-1.8-9.1-6.4-10.2c-4.6-1-9.1,1.8-10.2,6.4
						C1579.8,587.5,1582.7,592.1,1587.2,593.1"/>
					<path class="st12" d="M1587.3,583.6c0.9,0.2,1.7-0.3,1.9-1.2c0.2-0.9-0.3-1.7-1.2-1.9c-0.9-0.2-1.7,0.3-1.9,1.2
						S1586.5,583.5,1587.3,583.6"/>
					<path class="st12" d="M1586.3,588.1c0.9,0.2,1.7-0.3,1.9-1.2c0.2-0.9-0.3-1.7-1.2-1.9c-0.9-0.2-1.7,0.3-1.9,1.2
						C1584.9,587,1585.5,587.9,1586.3,588.1"/>
					<path class="st12" d="M1591.5,584.6c0.9,0.2,1.7-0.3,1.9-1.2c0.2-0.9-0.4-1.7-1.2-1.9c-0.9-0.2-1.7,0.3-1.9,1.2
						C1590.1,583.5,1590.6,584.4,1591.5,584.6"/>
					<path class="st12" d="M1590.5,589c0.9,0.2,1.7-0.3,1.9-1.2c0.2-0.9-0.3-1.7-1.2-1.9c-0.9-0.2-1.7,0.4-1.9,1.2
						C1589.1,588,1589.6,588.8,1590.5,589"/>
				</g>
				<g>
					<path class="st7" d="M1587.2,683.9c4.6,1,9.1-1.8,10.2-6.4c1-4.6-1.8-9.1-6.4-10.2c-4.6-1-9.1,1.8-10.2,6.4
						C1579.8,678.3,1582.7,682.9,1587.2,683.9"/>
					<path class="st12" d="M1587.3,674.4c0.9,0.2,1.7-0.4,1.9-1.2c0.2-0.9-0.3-1.7-1.2-1.9c-0.9-0.2-1.7,0.3-1.9,1.2
						S1586.5,674.2,1587.3,674.4"/>
					<path class="st12" d="M1586.3,678.8c0.9,0.2,1.7-0.4,1.9-1.2c0.2-0.9-0.3-1.7-1.2-1.9c-0.9-0.2-1.7,0.4-1.9,1.2
						C1584.9,677.8,1585.5,678.6,1586.3,678.8"/>
					<path class="st12" d="M1591.5,675.4c0.9,0.2,1.7-0.4,1.9-1.2c0.2-0.9-0.4-1.7-1.2-1.9c-0.9-0.2-1.7,0.3-1.9,1.2
						C1590.1,674.3,1590.6,675.2,1591.5,675.4"/>
					<path class="st12" d="M1590.5,679.8c0.9,0.2,1.7-0.3,1.9-1.2c0.2-0.9-0.3-1.7-1.2-1.9c-0.9-0.2-1.7,0.3-1.9,1.2
						C1589.1,678.7,1589.6,679.6,1590.5,679.8"/>
				</g>
				<g>
					<path class="st7" d="M1587.2,774.6c4.6,1,9.1-1.8,10.2-6.4c1-4.6-1.8-9.1-6.4-10.2c-4.6-1-9.1,1.8-10.2,6.4
						C1579.8,769.1,1582.7,773.6,1587.2,774.6"/>
					<path class="st12" d="M1587.3,765.2c0.9,0.2,1.7-0.3,1.9-1.2c0.2-0.9-0.3-1.7-1.2-1.9c-0.9-0.2-1.7,0.4-1.9,1.2
						S1586.5,765,1587.3,765.2"/>
					<path class="st12" d="M1586.3,769.6c0.9,0.2,1.7-0.4,1.9-1.2c0.2-0.9-0.3-1.7-1.2-1.9c-0.9-0.2-1.7,0.3-1.9,1.2
						S1585.5,769.4,1586.3,769.6"/>
					<path class="st12" d="M1591.5,766.1c0.9,0.2,1.7-0.4,1.9-1.2c0.2-0.9-0.4-1.7-1.2-1.9c-0.9-0.2-1.7,0.3-1.9,1.2
						S1590.6,765.9,1591.5,766.1"/>
					<path class="st12" d="M1590.5,770.6c0.9,0.2,1.7-0.4,1.9-1.2c0.2-0.9-0.3-1.7-1.2-1.9c-0.9-0.2-1.7,0.3-1.9,1.2
						C1589.1,769.5,1589.6,770.4,1590.5,770.6"/>
				</g>
			</g>
			<g>
				<polygon class="st7" points="1501,394.8 1548.3,484.2 1588.4,456 				"/>
				<polygon class="st7" points="1675.3,393.2 1629.2,484.2 1589.2,456 				"/>
			</g>
		</g>
		<g>
			<path class="st4" d="M1469.5,147.2c0,4-10,26.9-3.7,42.2c5.9,14.4,12.8,28.7,13.6,44.6c0.4,8.4,5.4,12.9,11.5,18.4
				c-1.1-9.7-0.4-16.2-1.1-24.9c-0.8-11.1-0.8-23.6,7.7-31.6c5.5-5.1,6.9-11,5.9-18c-0.5-3.6-1-7.2-1.4-10.9
				c-1.9-16.2,3.9-25.9,20-29.2c11.2-2.3,44.8,10.7,56.3,10.7c26.3,0.1,30.8-12.3,57.1-11.8c2.4,0,4.7,0,7.1,0.1
				c11.4,1,18.5,7.8,19.7,19.2c0.4,4,0.7,8.4-0.4,12.1c-4,13-0.6,23.8,8.1,33.8c6.9,7.9,6.4,19.7,5.7,30.2c-0.5,7.4,2,12.7,1.3,20.1
				c0.6,0.3,1.2,0.5,1.8,0.8c2.2-5,5.2-9.9,6.5-15.1c2.9-11.9,4.8-23.9,7.4-35.8c4.6-21,6.3-23.4,2.5-45c-3.2-18.2-7.8-53.3-28-59.1
				c-23.8-2.2-45.3-12-57.7-11.5C1476.5,91.2,1469.5,106.1,1469.5,147.2z"/>
		</g>
	</g>
</g>
<g id="Слой_9" class="first-animate">
	<g id="Слой_1_1_">
		<g>
			<g>
				<g>
					<path class="st8" d="M989,735.4c121.1-134.1-72.2-424.4-50-521.6c48.4-212,179.5-151.6,179.5-151.6s30,85.1,21.7,128
						c-21,108.4-86.2,201.4-86.2,201.4s64.6,99.8,85.6,124.9c11.9,14.3,9.6,6.9,8.3,17.2c-4.2,32.1-27.1,166.7-27.1,166.7
						S969.9,756.6,989,735.4z"/>
					<path class="st8" d="M1423.9,573.2c-11-126.6,48.7-304.5,26.4-403.8C1408.5-16.1,1246-12.7,1145.1,12.1
						c-54.8,13.5-90.5,67.1-83.1,73c48.3,38.9,144.1-31,183.4,103.4c20.3,69.6,55,131.1,72.5,200c8.7,34.3-39.4,97.1-51.5,135.8
						c-3,9.5,16.3,177.5,16.3,177.5L1473,755C1473.2,755.1,1431.2,656.9,1423.9,573.2z"/>
					<path class="st2" d="M1392.2,700.5c-4.4-1.4-58-4.7-72.5-14.1c-14.2-9.2-28.3-22.7-32.6-41.1c-11.5-50.5-8.6-124.1-8.6-124.1
						h-8.2h-123.1h-8.2c0,0,2.9,73.7-8.6,124.1c-4.2,18.4-18.3,31.9-32.6,41.1c-14.5,9.4-69.1,14.1-73.7,14.1c-27.3,0,28,14,28,20.4
						c0,26.4,70.1,46,156.7,46c86.5,0,156.7-19.7,156.7-46C1365.5,714.5,1393.1,700.8,1392.2,700.5z"/>
					<g>
						<path class="st5" d="M1319.8,686.5c3.7,2.4,7.3,4.5,10.9,6.3l-42.2-43.2C1293.6,665.9,1306.7,678,1319.8,686.5z"/>
						<path class="st3" d="M1287.2,645.4c-11.5-50.5-8.6-129-8.6-129l-8.2,4.9H1139l149.3,128.3
							C1287.9,648.2,1287.5,646.8,1287.2,645.4z"/>
						<path class="st10" d="M1365.5,721c0-6.5-4.2-12.7-11.9-18.5l0.9,0.1c0,0-0.5-0.1-1.3-0.4c-3.3-1-12.2-4.1-22.6-9.4l33.6,34.3
							C1365.1,725.1,1365.5,723.1,1365.5,721z"/>
					</g>
					<path class="st2" d="M1325.2,113.4c-67.5-8.6-138-1.8-205.3,2.9c-3.2,0.2-6.2-0.4-9-1.7c-31.5,20.5-19.2,54.2-43.5,112.9
						c-16.6,40.2-35,50.6-32.1,70.1c2.3,15.4,6.5,30.6,8.5,46c15.2,120,92.3,204.5,165.8,199.7c0,0,0.1,0,0.2,0s0.1,0,0.2,0l0,0
						c65.4,5.9,156.1-93.2,165.8-199.7c1.4-15.5,6.2-30.6,8.5-46c2.9-19.5,9.3-87.1-2.6-105.3
						C1364.8,166.7,1346.3,138.5,1325.2,113.4z"/>
					<g>
						<path class="st2" d="M1023.4,343.8c12.3,29.1,5.1,40.5,24,39.9c3.9-0.1,4.4-12.8-0.1-24.2c-3.6-9.3-6.9-20.1-7-27.5
							c-0.2-16.5,12.7-10.4,7.6-25.4c-10.3-29.9-12.6-29.9-26.5-28.9C1007.5,278.6,1010.2,312.5,1023.4,343.8z"/>
					</g>
					<path class="st4" d="M1585,879.8c-28.5-69.4-96.7-181.1-176.3-181.1h-23.8c-21.6,24.2-93.2,41.9-178.2,41.9
						s-156.7-17.8-178.2-41.9h-23.8c-79.6,0-147.8,111.7-176.3,181.1C828.4,1020.3,1585,1016,1585,879.8z"/>
					<path class="st8" d="M1410.1,163.6c-6-33.4-40.7-70.9-71.3-76.9c1.3,2.2,3.1,4.1,3.6,6.3c0.8,3.6,2.5,8.6,0.9,10.8
						c-1.8,2.3-7.5,3.7-10.5,2.6c-6.9-2.4-14-5.6-19.4-10.2c-3.1-2.6-6.6-7.4-10.3-13.5c-11.6-1.3-23.2-2.7-34.8-4.1
						c-15.1,0.3-30.2,1-45.3,1.9c-54.2,3.1-108.3,8.9-162.5,9.6l-0.2,0.2c-3.5,3.5-7.4,5.4-11.2,6.2c-6.6,22.3-59,45.5-62.8,53.8
						c-3.2,6.8-6.2,13.6-8.4,20.7c-0.9,2.9-1.6,5.7-2.2,8.5c25.9,10.2,51.2,21.8,76,34.3c-2.6-27.9,8.4-39.9,37-45.8
						c20.6-4.3,51.2,23.7,108.3,23.7c48.4,0,51.9-26.6,100.4-25.6c4.3,0.1,8.7-0.1,13,0.3c20.8,1.8,34,8.9,36.1,29.9
						c0.8,7.4,1.3,15.4-0.8,22.3c-7.3,24-1.1,43.7,15,62.2c12.7,14.5,18,32.3,16.7,51.6c-0.9,13.6-2.5,27.2-3.8,40.8
						c1.1,0.5,2.2,1,3.2,1.4c4.1-9.3,9.6-18.2,11.9-27.8c5.3-21.8,8.8-44,13.6-65.9C1410.9,242.1,1417.1,203.3,1410.1,163.6z"/>
					<g>
						<path class="st2" d="M1395.9,338.9c-12.3,29.1-5.1,40.5-24,39.9c-3.9-0.1-4.4-12.8,0.1-24.3c3.6-9.2,6.9-20.1,7-27.5
							c0.2-16.5-12.7-10.4-7.6-25.3c10.3-29.9,12.6-29.9,26.5-28.9C1411.8,273.7,1409.1,307.6,1395.9,338.9z"/>
					</g>
				</g>
			</g>
		</g>
	</g>
</g>
<g id="Слой_12" class="second-book">
	<g>
		<path class="st8" d="M632.6,1256.9H232.2c-21.8,0-39.5-17.7-39.5-39.5v-1.4c0-21.8,17.7-39.5,39.5-39.5h400.3v-16.9H232.2
			c-31.1,0-56.4,25.3-56.4,56.4v1.4c0,31.1,25.3,56.4,56.4,56.4h400.3L632.6,1256.9L632.6,1256.9z"/>
		<path class="st7" d="M632.6,1170.2H230.8c-23.4,0-42.3,20.8-42.3,46.5s18.9,46.5,42.3,46.5h401.8V1170.2z"/>
		<polygon class="st4" points="523,1204.7 523,1255.9 541.7,1236.1 561.2,1256.8 561.6,1256.8 561.6,1204.7 		"/>
	</g>
</g>
<g id="Слой_7" class="first-book">
	<g>
		<g>
			<path class="st9" d="M632.6,1369.2H232.2c-21.8,0-39.5-17.7-39.5-39.5v-1.4c0-21.8,17.7-39.5,39.5-39.5h400.3v-16.9H232.2
				c-31.1,0-56.4,25.3-56.4,56.4v1.4c0,31.1,25.3,56.4,56.4,56.4h400.3L632.6,1369.2L632.6,1369.2z"/>
			<path class="st7" d="M632.6,1282.5H230.8c-23.4,0-42.3,20.8-42.3,46.5s18.9,46.5,42.3,46.5h401.8V1282.5z"/>
		</g>
		
	</g>
</g>
<g id="Слой_13" class="second-book" >
	<g>
		<path class="st8" d="M2274.6,1273.3h-349.4c-19,0-34.4-15.5-34.4-34.4v-1.2c0-19,15.4-34.4,34.4-34.4h349.4v-14.8h-349.4
			c-27.1,0-49.2,22.1-49.2,49.2v1.2c0,27.1,22.1,49.2,49.2,49.2h349.4V1273.3z"/>
		<path class="st2" d="M2274.6,1197.7H1924c-20.4,0-36.9,18.2-36.9,40.6s16.5,40.6,36.9,40.6h350.6V1197.7z"/>
		<polygon class="st4" points="2179,1227.8 2179,1272.4 2195.3,1255.2 2212.3,1273.2 2212.7,1273.2 2212.7,1227.8 			"/>
	</g>
</g>
<g id="Слой_3" class="first-book">
	<g>
		<g>
			<g>
				<path class="st9" d="M2274.6,1371.3h-349.4c-19,0-34.4-15.5-34.4-34.4v-1.2c0-19,15.4-34.4,34.4-34.4h349.4v-14.8h-349.4
					c-27.1,0-49.2,22.1-49.2,49.2v1.2c0,27.1,22.1,49.2,49.2,49.2h349.4V1371.3z"/>
				<path class="st2" d="M2274.6,1295.6H1924c-20.4,0-36.9,18.2-36.9,40.6s16.5,40.6,36.9,40.6h350.6V1295.6z"/>
			</g>
			
		</g>
	</g>
</g>
<g id="Слой_14" class="third-book">
	<g>
		<polygon class="st9" points="2303.6,1185.5 1879,1185.5 1879,865.1 2092.9,865.1 2303.6,865.1 		"/>
		<rect x="1889.4" y="1148.5" class="st3" width="403.8" height="27.1"/>
		<g>
			<path class="st7" d="M2123.4,854.7c-14,2.9-25.7,9.7-32.6,18.8v269.2v5.7l0.8,15.5c2.7-4.5,6.2-13,20.2-15.5h180.9l0.9-293.9
				L2123.4,854.7z"/>
			<g>
				<path class="st7" d="M2059.1,854.7c14,2.9,25.7,9.7,32.6,18.8v269.2v5.7v15.3c-4.9-6.4-12.2-11.7-21-15.3h-180.9l-0.9-293.9
					L2059.1,854.7z"/>
				<path class="st2" d="M2059.7,854.8v293.6c0,0,17.7-1.6,31.7,15.7l0.3-290.6C2085,864.5,2073.5,857.7,2059.7,854.8z"/>
			</g>
		</g>
		<g>
			<g>
				<g>
					<rect x="1954" y="897.5" class="st3" width="71.5" height="3.5"/>
					<g>
						<rect x="1942.2" y="910.4" class="st3" width="107.7" height="3.6"/>
						<polygon class="st3" points="1929.6,916.7 2049.9,916.7 2049.9,920.2 1929.6,920.2 						"/>
						<rect x="1929.6" y="922.9" class="st3" width="120.3" height="3.6"/>
						<rect x="1929.6" y="929.1" class="st3" width="120.3" height="3.6"/>
						<rect x="1929.6" y="935.4" class="st3" width="120.3" height="3.6"/>
						<rect x="1929.6" y="941.6" class="st3" width="120.3" height="3.5"/>
						<rect x="1929.6" y="947.8" class="st3" width="120.3" height="3.6"/>
						<rect x="1929.6" y="954.1" class="st3" width="120.3" height="3.6"/>
						<rect x="1929.6" y="960.3" class="st3" width="60.1" height="3.6"/>
					</g>
				</g>
				<g>
					<rect x="1942.2" y="966.9" class="st3" width="107.7" height="3.6"/>
					<rect x="1929.6" y="973.1" class="st3" width="120.3" height="3.6"/>
					<rect x="1929.6" y="979.4" class="st3" width="120.3" height="3.6"/>
					<rect x="1929.6" y="985.6" class="st3" width="120.3" height="3.6"/>
					<rect x="1929.6" y="991.8" class="st3" width="120.3" height="3.6"/>
					<rect x="1929.6" y="998.1" class="st3" width="120.3" height="3.6"/>
					<rect x="1929.6" y="1004.3" class="st3" width="120.3" height="3.6"/>
					<rect x="1929.6" y="1010.5" class="st3" width="120.3" height="3.6"/>
					<rect x="1929.6" y="1016.8" class="st3" width="99.5" height="3.6"/>
				</g>
				<g>
					<rect x="1942.2" y="1023.4" class="st3" width="107.7" height="3.6"/>
					<polygon class="st3" points="1929.6,1029.6 2049.9,1029.6 2049.9,1033.2 1929.6,1033.2 					"/>
					<rect x="1929.6" y="1035.8" class="st3" width="120.3" height="3.6"/>
					<rect x="1929.6" y="1042.1" class="st3" width="120.3" height="3.6"/>
					<rect x="1929.6" y="1048.3" class="st3" width="120.3" height="3.6"/>
					<rect x="1929.6" y="1054.6" class="st3" width="120.3" height="3.5"/>
					<rect x="1929.6" y="1067" class="st3" width="120.3" height="3.6"/>
				</g>
				<g>
					<rect x="1929.6" y="1060.4" class="st3" width="120.3" height="3.5"/>
					<rect x="1929.6" y="1066.7" class="st3" width="120.3" height="3.6"/>
					<rect x="1929.6" y="1072.9" class="st3" width="120.3" height="3.6"/>
					<rect x="1929.6" y="1079.1" class="st3" width="120.3" height="3.6"/>
					<rect x="1929.6" y="1085.4" class="st3" width="120.3" height="3.5"/>
					<rect x="1929.6" y="1091.6" class="st3" width="120.3" height="3.6"/>
					<rect x="1929.6" y="1097.8" class="st3" width="120.3" height="3.6"/>
				</g>
			</g>
			<g>
				<g>
					<rect x="2157" y="897.5" class="st3" width="71.5" height="3.5"/>
					<g>
						<rect x="2145.3" y="910.4" class="st3" width="107.7" height="3.6"/>
						<polygon class="st3" points="2132.7,916.7 2252.9,916.7 2252.9,920.2 2132.7,920.2 						"/>
						<rect x="2132.7" y="922.9" class="st3" width="120.3" height="3.6"/>
						<rect x="2132.7" y="929.1" class="st3" width="120.3" height="3.6"/>
						<rect x="2132.7" y="935.4" class="st3" width="120.3" height="3.6"/>
						<rect x="2132.7" y="941.6" class="st3" width="120.3" height="3.5"/>
						<rect x="2132.7" y="947.8" class="st3" width="120.3" height="3.6"/>
						<rect x="2132.7" y="954.1" class="st3" width="120.3" height="3.6"/>
						<rect x="2132.7" y="960.3" class="st3" width="60.1" height="3.6"/>
					</g>
				</g>
				<g>
					<rect x="2145.3" y="966.9" class="st3" width="107.7" height="3.6"/>
					<rect x="2132.7" y="973.1" class="st3" width="120.3" height="3.6"/>
					<rect x="2132.7" y="979.4" class="st3" width="120.3" height="3.6"/>
					<rect x="2132.7" y="985.6" class="st3" width="120.3" height="3.6"/>
					<rect x="2132.7" y="991.8" class="st3" width="120.3" height="3.6"/>
					<rect x="2132.7" y="998.1" class="st3" width="120.3" height="3.6"/>
					<rect x="2132.7" y="1004.3" class="st3" width="120.3" height="3.6"/>
					<rect x="2132.7" y="1010.5" class="st3" width="120.3" height="3.6"/>
					<rect x="2132.7" y="1016.8" class="st3" width="99.5" height="3.6"/>
				</g>
				<g>
					<rect x="2145.3" y="1023.4" class="st3" width="107.7" height="3.6"/>
					<polygon class="st3" points="2132.7,1029.6 2252.9,1029.6 2252.9,1033.2 2132.7,1033.2 					"/>
					<rect x="2132.7" y="1035.8" class="st3" width="120.3" height="3.6"/>
					<rect x="2132.7" y="1042.1" class="st3" width="120.3" height="3.6"/>
					<rect x="2132.7" y="1048.3" class="st3" width="120.3" height="3.6"/>
					<rect x="2132.7" y="1054.6" class="st3" width="120.3" height="3.5"/>
					<rect x="2132.7" y="1067" class="st3" width="120.3" height="3.6"/>
				</g>
				<g>
					<rect x="2132.7" y="1060.4" class="st3" width="120.3" height="3.5"/>
					<rect x="2132.7" y="1066.7" class="st3" width="120.3" height="3.6"/>
					<rect x="2132.7" y="1072.9" class="st3" width="120.3" height="3.6"/>
					<rect x="2132.7" y="1079.1" class="st3" width="120.3" height="3.6"/>
					<rect x="2132.7" y="1085.4" class="st3" width="120.3" height="3.5"/>
					<rect x="2132.7" y="1091.6" class="st3" width="120.3" height="3.6"/>
					<rect x="2132.7" y="1097.8" class="st3" width="120.3" height="3.6"/>
				</g>
			</g>
		</g>
		<polygon class="st4" points="2027.5,853.2 2027.5,1229.1 2038.4,1217.5 2049.8,1229.6 2050,1229.6 2050,853.2 		"/>
	</g>
</g>
<g id="Слой_6" class="bag">
	<g>
		<polygon class="st8" points="636.5,767.4 614.3,767.4 614.3,674.9 459,674.9 459,752.6 436.8,752.6 436.8,663.8 447.9,652.7 
			625.4,652.7 636.5,663.8 		"/>
		<rect x="198.3" y="724.2" class="st9" width="676.8" height="432.7"/>
		<path class="st4" d="M198.3,724.2V889c0,0,181.7,48.9,345.2,48.9c174.6,0,331.6-48.9,331.6-48.9V724.2H198.3z"/>
		<g>
			<g>
				<g>
					<rect x="505.2" y="724.2" class="st9" width="62.9" height="433.3"/>
					<rect x="565.6" y="724.2" class="st8" width="4.9" height="433.3"/>
					<rect x="502.8" y="724.2" class="st8" width="4.9" height="433.3"/>
				</g>
				<rect x="516.8" y="724.2" class="st4" width="39.7" height="433.3"/>
			</g>
			<g>
				<path class="st13" d="M551.4,1040.3h-29.5c-9.8,0-17.7-8-17.7-17.7v-53.3c0-9.8,8-17.7,17.7-17.7h29.5c9.8,0,17.7,7.9,17.7,17.7
					v53.3C569.1,1032.3,561.2,1040.3,551.4,1040.3z M521.9,958.9c-5.7,0-10.3,4.6-10.3,10.3v53.3c0,5.7,4.6,10.3,10.3,10.3h29.5
					c5.7,0,10.3-4.6,10.3-10.3v-53.3c0-5.7-4.6-10.3-10.3-10.3L521.9,958.9L521.9,958.9z"/>
				<rect x="532" y="1000.4" class="st13" width="9.2" height="38.8"/>
			</g>
		</g>
	</g>
</g>
<g id="Слой_4" class="bag">
	<g>
		<path class="st7" d="M1945.4,743.2h-318.3h-28.4h-11.4h-19.9v611h19.9h11.4h28.4h318.3c28.2,0,51.1-22.9,51.1-51.2V794.4
			C1996.5,766.1,1973.6,743.2,1945.4,743.2z"/>
		<path class="st6" d="M1942.5,735.1h-318.3h-28.4h-11.4h-19.9v611h19.9h11.4h28.4h318.3c28.3,0,51.2-22.9,51.2-51.1V786.2
			C1993.7,758,1970.8,735.1,1942.5,735.1z"/>
		<path class="st7" d="M1931.2,737.5h-318.3h-28.4h-11.4h-19.9v611h19.9h11.4h28.4h318.3c28.2,0,51.2-22.9,51.2-51.2V788.7
			C1982.3,760.4,1959.4,737.5,1931.2,737.5z"/>
		<rect x="1541.8" y="734.7" class="st14" width="59.7" height="611"/>
		<path class="st15" d="M1919.8,734.7h-318.3v611h318.3c28.2,0,51.1-22.9,51.1-51.2V785.8C1971,757.6,1948.1,734.7,1919.8,734.7z"/>
		<rect x="1561.7" y="734.7" class="st15" width="11.4" height="611"/>
		<polygon class="st10" points="1866.4,923 1683.9,926 1682.9,865.4 1865.4,862.4 		"/>
		<rect x="1863" y="729" class="st16" width="31.3" height="636.6"/>
	</g>
</g>
<g id="Слой_5" class="third-book">
	<g>
		<g>
			<path class="st10" d="M1894,1175.4h-210.7v200.9c0,2.5,1,5,2.9,6.9s4.4,2.8,6.9,2.8h191.2c2.5,0,5-1,6.9-2.8
				c1.9-1.9,2.9-4.4,2.9-6.9v-200.9H1894z"/>
			<path class="st7" d="M1894,1091.4c0-2.5-1-5-2.9-6.9s-4.4-2.9-6.9-2.9H1693c-2.5,0-5,1-6.9,2.9s-2.9,4.4-2.9,6.9v84H1894V1091.4z
				"/>
			<path class="st8" d="M1706.7,1158.5c-1.5,0-3-0.6-4.1-1.7s-1.7-2.5-1.7-4.1v-48.5c0-1.5,0.6-3,1.7-4.1s2.5-1.7,4.1-1.7h165.4
				c1.5,0,3,0.6,4.1,1.7s1.7,2.5,1.7,4.1v48.5c0,1.5-0.6,3-1.7,4.1s-2.5,1.7-4.1,1.7H1706.7z"/>
			<path class="st10" d="M1706.7,1102.5c-0.4,0-0.9,0.2-1.2,0.5c-0.3,0.3-0.5,0.8-0.5,1.2v48.5c0,0.4,0.2,0.9,0.5,1.2
				c0.3,0.3,0.8,0.5,1.2,0.5h165.4c0.4,0,0.9-0.2,1.2-0.5c0.3-0.3,0.5-0.8,0.5-1.2v-48.5c0-0.4-0.2-0.9-0.5-1.2
				c-0.3-0.3-0.8-0.5-1.2-0.5H1706.7z"/>
			<rect x="1683.3" y="1171.3" class="st16" width="210.7" height="4.1"/>
		</g>
		<g>
			<rect x="1708.2" y="1219.8" class="st7" width="24.4" height="19.9"/>
			<rect x="1753.7" y="1219.8" class="st7" width="24.4" height="19.9"/>
			<rect x="1799.2" y="1219.8" class="st9" width="24.4" height="19.9"/>
			<rect x="1844.7" y="1219.8" class="st4" width="24.4" height="19.9"/>
			<rect x="1708.2" y="1255.6" class="st7" width="24.4" height="19.9"/>
			<rect x="1753.7" y="1255.6" class="st7" width="24.4" height="19.9"/>
			<rect x="1799.2" y="1255.6" class="st7" width="24.4" height="19.9"/>
			<rect x="1844.7" y="1255.6" class="st7" width="24.4" height="19.9"/>
			<rect x="1708.2" y="1291.4" class="st7" width="24.4" height="19.9"/>
			<rect x="1753.7" y="1291.4" class="st7" width="24.4" height="19.9"/>
			<rect x="1799.2" y="1291.4" class="st7" width="24.4" height="19.9"/>
			<rect x="1708.2" y="1327.3" class="st7" width="24.4" height="19.9"/>
			<rect x="1753.7" y="1327.3" class="st7" width="24.4" height="19.9"/>
			<rect x="1799.2" y="1327.3" class="st7" width="24.4" height="19.9"/>
			<rect x="1844.7" y="1291.4" class="st7" width="24.4" height="55.8"/>
		</g>
	</g>
</g>
<g id="Слой_8" class="laptop">
	<g>
		<g>
			<path class="st7" d="M662.6,759.4h891.1c25.1,0,45.6,20.5,45.6,45.6v484.9c0,25.1-20.5,45.6-45.6,45.6H662.6
				c-25.1,0-45.6-20.5-45.6-45.6V805C617,779.9,637.6,759.4,662.6,759.4z"/>
			<path class="st17" d="M1553.9,759.4H662.7c-25.1,0-45.6,20.5-45.6,45.6v488.5c0,25.1,20.5,45.6,45.6,45.6h891.2
				c25.1,0,45.6-20.5,45.6-45.6V805C1599.5,779.9,1578.9,759.4,1553.9,759.4z M1557,1293.4c0,1.6-1.5,3.1-3.1,3.1H662.7
				c-1.6,0-3.1-1.5-3.1-3.1V805c0-1.6,1.5-3.1,3.1-3.1h891.2c1.6,0,3.1,1.5,3.1,3.1V1293.4z"/>
		</g>
		<g>
			<path class="st4" d="M522.8,1334.3c-1.2,3.8-1.9,7.8-1.9,12c0,22,17.8,39.8,39.8,39.8h1095c22,0,39.8-17.8,39.8-39.8
				c0-4.2-0.6-8.2-1.8-12H522.8z"/>
			<path class="st14" d="M1251.6,1360.2c0,2.9-2.4,5.2-5.2,5.2H987.6c-2.9,0-5.2-2.3-5.2-5.2l0,0c0-2.9,2.4-5.2,5.2-5.2h258.7
				C1249.2,1355,1251.6,1357.3,1251.6,1360.2L1251.6,1360.2z"/>
		</g>
	</g>
</g>
<g id="Слой_1"  class="laptop-inner">
	<g>
		<defs>
			<rect id="SVGID_3_" x="659.6" y="804" width="894.3" height="492.5"/>
		</defs>
		<clipPath id="SVGID_4_">
			<use xlink:href="#SVGID_3_"  style="overflow:visible;"/>
		</clipPath>
		<g style="clip-path:url(#SVGID_4_);">
			
				<image class="animate" style="overflow:visible;" width="3372" height="4422" xlink:href="848DF9FF99F42ADA.jpg"  transform="matrix(0.24 0 0 0.24 710.4 857.34)">
			</image>
		</g>
	</g>
</g>
</svg>
