<?xml version="1.0" encoding="utf-8"?>
<!-- Generator: Adobe Illustrator 21.1.0, SVG Export Plug-In . SVG Version: 6.00 Build 0)  -->
<svg version="1.1" id="Слой_1" xmlns="http://www.w3.org/2000/svg" xmlns:xlink="http://www.w3.org/1999/xlink" x="0px" y="0px"
	 viewBox="0 0 47.9 47.9" style="enable-background:new 0 0 47.9 47.9;" xml:space="preserve">
<style type="text/css">
	.st0{fill:#5DC1FF;}
	.st1{fill:#FFFFFF;}
</style>
<g id="in" transform="translate(4400 5807)">
	<path id="Path_9416" class="st0" d="M-4356.5-5807h-39.2c-2.4,0-4.3,1.9-4.3,4.3v39.2c0,2.4,1.9,4.3,4.3,4.3l0,0h39.2
		c2.4,0,4.3-1.9,4.3-4.3l0,0v-39.2C-4352.1-5805.1-4354.1-5807-4356.5-5807C-4356.5-5807-4356.5-5807-4356.5-5807"/>
	<path id="Path_9417" class="st1" d="M-4384-5791.9c1.6,0,2.9-1.3,2.8-2.9c0-1.6-1.3-2.9-2.9-2.8c-1.6,0-2.8,1.3-2.8,2.9
		C-4386.9-5793.2-4385.6-5791.9-4384-5791.9C-4384-5791.9-4384-5791.9-4384-5791.9 M-4390.1-5776.5c-0.2,0.7-0.3,1.4-0.3,2.2
		c0,2.5,1.4,4.2,4.3,4.2c2.4,0,4.4-1.4,5.8-3.8l-0.9,3.5h4.8l2.8-11c0.7-2.8,2-4.2,4-4.2c1.3-0.1,2.5,0.9,2.6,2.2c0,0.1,0,0.3,0,0.4
		c0,0.5-0.1,1-0.2,1.5l-1.4,5.1c-0.2,0.7-0.3,1.4-0.3,2.2c0,2.4,1.4,4.2,4.4,4.2c2.5,0,4.6-1.6,5.7-5.5l-1.9-0.7
		c-0.9,2.6-1.8,3.1-2.4,3.1s-1-0.4-1-1.3c0-0.5,0.1-0.9,0.2-1.3l1.4-4.9c0.3-1,0.5-2.1,0.5-3.1c0-3.7-2.2-5.6-4.9-5.6
		c-2.5,0-5.1,2.3-6.4,4.7l0.9-4.3h-7.4l-1,3.8h3.4l-2.1,8.5c-1.7,3.7-4.7,3.8-5.1,3.7c-0.6-0.1-1-0.4-1-1.2c0-0.7,0.1-1.3,0.3-2
		l3.2-12.8h-8.2l-1,3.8h3.4L-4390.1-5776.5"/>
</g>
</svg>
