<?xml version="1.0" encoding="utf-8"?>
<!-- Generator: Adobe Illustrator 21.1.0, SVG Export Plug-In . SVG Version: 6.00 Build 0)  -->
<svg version="1.1" id="Слой_1" xmlns="http://www.w3.org/2000/svg" xmlns:xlink="http://www.w3.org/1999/xlink" x="0px" y="0px"
	 viewBox="0 0 50 26" style="enable-background:new 0 0 50 26;" xml:space="preserve">
<style type="text/css">
	.st0{fill:#26ACFF;}
	.st1{fill:#FFFFFF;}
</style>
<g id="php-1" transform="translate(5203 5725)">
	<ellipse id="Ellipse_472" class="st0" cx="-5178" cy="-5712" rx="25" ry="13"/>
	<path id="Path_9428" class="st1" d="M-5196-5704.3l2.7-13.9h6.3c2.7,0.2,4.1,1.5,4.1,3.9c0.2,3.3-2.4,6.2-5.8,6.3
		c-0.1,0-0.3,0-0.4,0h-3.1l-0.7,3.6L-5196-5704.3z M-5191.4-5710.4l0.9-5.1h2.2c1.2,0,2.1,0.5,2.1,1.5c-0.2,2.9-1.5,3.4-3.1,3.6
		L-5191.4-5710.4L-5191.4-5710.4z M-5183.4-5707.9l2.7-13.9h3.3l-0.7,3.6h3.1c2.7,0.2,3.8,1.5,3.4,3.3l-1.2,7h-3.4l1.2-6.3
		c0.2-0.9,0.2-1.4-1-1.4h-2.6l-1.5,7.7L-5183.4-5707.9z M-5173-5704.3l2.7-13.9h6.3c2.7,0.2,4.1,1.5,4.1,3.9
		c0.2,3.3-2.4,6.2-5.8,6.3c-0.1,0-0.3,0-0.4,0h-3.1l-0.7,3.6L-5173-5704.3z M-5168.4-5710.4l0.9-5.1h2.2c1.2,0,2.1,0.5,2.1,1.5
		c-0.2,2.9-1.5,3.4-3.1,3.6L-5168.4-5710.4L-5168.4-5710.4z"/>
</g>
<path class="st0" d="M11.7,14.6l0.9-5.1h2.2c1.2,0,2.1,0.5,2.1,1.5c-0.2,2.9-1.5,3.4-3.1,3.6L11.7,14.6L11.7,14.6z"/>
<path class="st0" d="M34.7,14.6l0.9-5.1h2.2c1.2,0,2.1,0.5,2.1,1.5c-0.2,2.9-1.5,3.4-3.1,3.6L34.7,14.6L34.7,14.6z"/>
</svg>
